%YAML 1.1
%TAG !u! tag:unity3d.com,2011:
--- !u!114 &11400000
MonoBehaviour:
  m_ObjectHideFlags: 0
  m_CorrespondingSourceObject: {fileID: 0}
  m_PrefabInstance: {fileID: 0}
  m_PrefabAsset: {fileID: 0}
  m_GameObject: {fileID: 0}
  m_Enabled: 1
  m_EditorHideFlags: 0
  m_Script: {fileID: 11500000, guid: 92be75f161c163c47bbdec5e644a769c, type: 3}
  m_Name: HeartsJ
  m_EditorClassIdentifier: 
  cardType: 1
  cardNumber: 10
  cardValue: 10
  cardSprite: {fileID: 21300000, guid: a9019214a2a45554db98eadc60c17315, type: 3}
