%YAML 1.1
%TAG !u! tag:unity3d.com,2011:
--- !u!114 &11400000
MonoBehaviour:
  m_ObjectHideFlags: 0
  m_CorrespondingSourceObject: {fileID: 0}
  m_PrefabInstance: {fileID: 0}
  m_PrefabAsset: {fileID: 0}
  m_GameObject: {fileID: 0}
  m_Enabled: 1
  m_EditorHideFlags: 0
  m_Script: {fileID: 11500000, guid: 92be75f161c163c47bbdec5e644a769c, type: 3}
  m_Name: Hearts3
  m_EditorClassIdentifier: 
  cardType: 1
  cardNumber: 2
  cardValue: 3
  cardSprite: {fileID: 21300000, guid: 0f70ef1c151377642a9df8c52e11c0c7, type: 3}
