%YAML 1.1
%TAG !u! tag:unity3d.com,2011:
--- !u!114 &11400000
MonoBehaviour:
  m_ObjectHideFlags: 0
  m_CorrespondingSourceObject: {fileID: 0}
  m_PrefabInstance: {fileID: 0}
  m_PrefabAsset: {fileID: 0}
  m_GameObject: {fileID: 0}
  m_Enabled: 1
  m_EditorHideFlags: 0
  m_Script: {fileID: 11500000, guid: 92be75f161c163c47bbdec5e644a769c, type: 3}
  m_Name: Diamonds9
  m_EditorClassIdentifier: 
  cardType: 2
  cardNumber: 8
  cardValue: 9
  cardSprite: {fileID: 21300000, guid: 789f2e61abd3c2647be36c2b76ff799e, type: 3}
